…
you’d think `arrow` had done a better job of encoding the character
nature of the `location` column.

However, it seems that `arrow` does a worse job of reading in the
`location` column, regardless of what function was used to write the
file.

`arrow` does NOT correctly read in location, regardless of what function
was used to write the file,

``` r
arrow::read_csv_arrow(
  file.path("test", "2021-03-07-HUBuni-simexamp-arrow.csv")
)
#> # A tibble: 1,000 × 8
#>    origin_date scenario_id  location target   horizon output_type output_type_id
#>    <date>      <chr>           <int> <chr>      <int> <chr>                <dbl>
#>  1 2021-03-07  A-2021-03-05        2 inc dea…       1 quantile             0.01 
#>  2 2021-03-07  A-2021-03-05        2 inc dea…       1 quantile             0.025
#>  3 2021-03-07  A-2021-03-05        2 inc dea…       1 quantile             0.05 
#>  4 2021-03-07  A-2021-03-05        2 inc dea…       1 quantile             0.1  
#>  5 2021-03-07  A-2021-03-05        2 inc dea…       1 quantile             0.15 
#>  6 2021-03-07  A-2021-03-05        2 inc dea…       1 quantile             0.2  
#>  7 2021-03-07  A-2021-03-05        2 inc dea…       1 quantile             0.25 
#>  8 2021-03-07  A-2021-03-05        2 inc dea…       1 quantile             0.3  
#>  9 2021-03-07  A-2021-03-05        2 inc dea…       1 quantile             0.35 
#> 10 2021-03-07  A-2021-03-05        2 inc dea…       1 quantile             0.4  
#> # ℹ 990 more rows
#> # ℹ 1 more variable: value <dbl>
```

``` r
arrow::read_csv_arrow(
  file.path("test", "2021-03-07-HUBuni-simexamp-readr.csv")
)
#> # A tibble: 1,000 × 8
#>    origin_date scenario_id  location target   horizon output_type output_type_id
#>    <date>      <chr>           <int> <chr>      <int> <chr>                <dbl>
#>  1 2021-03-07  A-2021-03-05        2 inc dea…       1 quantile             0.01 
#>  2 2021-03-07  A-2021-03-05        2 inc dea…       1 quantile             0.025
#>  3 2021-03-07  A-2021-03-05        2 inc dea…       1 quantile             0.05 
#>  4 2021-03-07  A-2021-03-05        2 inc dea…       1 quantile             0.1  
#>  5 2021-03-07  A-2021-03-05        2 inc dea…       1 quantile             0.15 
#>  6 2021-03-07  A-2021-03-05        2 inc dea…       1 quantile             0.2  
#>  7 2021-03-07  A-2021-03-05        2 inc dea…       1 quantile             0.25 
#>  8 2021-03-07  A-2021-03-05        2 inc dea…       1 quantile             0.3  
#>  9 2021-03-07  A-2021-03-05        2 inc dea…       1 quantile             0.35 
#> 10 2021-03-07  A-2021-03-05        2 inc dea…       1 quantile             0.4  
#> # ℹ 990 more rows
#> # ℹ 1 more variable: value <dbl>
```
while `readr` correctly reads in `location` regardless of what function
was used to write the file.

``` r
readr::read_csv(file.path("test", "2021-03-07-HUBuni-simexamp-readr.csv"))
#> Rows: 1000 Columns: 8
#> ── Column specification ────────────────────────────────────────────────────────
#> Delimiter: ","
#> chr  (4): scenario_id, location, target, output_type
#> dbl  (3): horizon, output_type_id, value
#> date (1): origin_date
#> 
#> ℹ Use `spec()` to retrieve the full column specification for this data.
#> ℹ Specify the column types or set `show_col_types = FALSE` to quiet this message.
#> # A tibble: 1,000 × 8
#>    origin_date scenario_id  location target   horizon output_type output_type_id
#>    <date>      <chr>        <chr>    <chr>      <dbl> <chr>                <dbl>
#>  1 2021-03-07  A-2021-03-05 02       inc dea…       1 quantile             0.01 
#>  2 2021-03-07  A-2021-03-05 02       inc dea…       1 quantile             0.025
#>  3 2021-03-07  A-2021-03-05 02       inc dea…       1 quantile             0.05 
#>  4 2021-03-07  A-2021-03-05 02       inc dea…       1 quantile             0.1  
#>  5 2021-03-07  A-2021-03-05 02       inc dea…       1 quantile             0.15 
#>  6 2021-03-07  A-2021-03-05 02       inc dea…       1 quantile             0.2  
#>  7 2021-03-07  A-2021-03-05 02       inc dea…       1 quantile             0.25 
#>  8 2021-03-07  A-2021-03-05 02       inc dea…       1 quantile             0.3  
#>  9 2021-03-07  A-2021-03-05 02       inc dea…       1 quantile             0.35 
#> 10 2021-03-07  A-2021-03-05 02       inc dea…       1 quantile             0.4  
#> # ℹ 990 more rows
#> # ℹ 1 more variable: value <dbl>
```

``` r
readr::read_csv(file.path("test", "2021-03-07-HUBuni-simexamp-arrow.csv"))
#> Rows: 1000 Columns: 8
#> ── Column specification ────────────────────────────────────────────────────────
#> Delimiter: ","
#> chr  (4): scenario_id, location, target, output_type
#> dbl  (3): horizon, output_type_id, value
#> date (1): origin_date
#> 
#> ℹ Use `spec()` to retrieve the full column specification for this data.
#> ℹ Specify the column types or set `show_col_types = FALSE` to quiet this message.
#> # A tibble: 1,000 × 8
#>    origin_date scenario_id  location target   horizon output_type output_type_id
#>    <date>      <chr>        <chr>    <chr>      <dbl> <chr>                <dbl>
#>  1 2021-03-07  A-2021-03-05 02       inc dea…       1 quantile             0.01 
#>  2 2021-03-07  A-2021-03-05 02       inc dea…       1 quantile             0.025
#>  3 2021-03-07  A-2021-03-05 02       inc dea…       1 quantile             0.05 
#>  4 2021-03-07  A-2021-03-05 02       inc dea…       1 quantile             0.1  
#>  5 2021-03-07  A-2021-03-05 02       inc dea…       1 quantile             0.15 
#>  6 2021-03-07  A-2021-03-05 02       inc dea…       1 quantile             0.2  
#>  7 2021-03-07  A-2021-03-05 02       inc dea…       1 quantile             0.25 
#>  8 2021-03-07  A-2021-03-05 02       inc dea…       1 quantile             0.3  
#>  9 2021-03-07  A-2021-03-05 02       inc dea…       1 quantile             0.35 
#> 10 2021-03-07  A-2021-03-05 02       inc dea…       1 quantile             0.4  
#> # ℹ 990 more rows
#> # ℹ 1 more variable: value <dbl>
```
…
``` r

hubData::connect_hub(".", file_format = "csv") %>%
  filter(location == "US") %>%
  hubData::collect_hub()
#> # A tibble: 29,952 × 9
#>    model_id      origin_date scenario_id  location target    horizon output_type
#>  * <chr>         <date>      <chr>        <chr>    <chr>       <int> <chr>      
#>  1 hubcomp_examp 2021-03-07  A-2021-03-05 US       inc death       1 quantile   
#>  2 hubcomp_examp 2021-03-07  A-2021-03-05 US       inc death       1 quantile   
#>  3 hubcomp_examp 2021-03-07  A-2021-03-05 US       inc death       1 quantile   
#>  4 hubcomp_examp 2021-03-07  A-2021-03-05 US       inc death       1 quantile   
#>  5 hubcomp_examp 2021-03-07  A-2021-03-05 US       inc death       1 quantile   
#>  6 hubcomp_examp 2021-03-07  A-2021-03-05 US       inc death       1 quantile   
#>  7 hubcomp_examp 2021-03-07  A-2021-03-05 US       inc death       1 quantile   
#>  8 hubcomp_examp 2021-03-07  A-2021-03-05 US       inc death       1 quantile   
#>  9 hubcomp_examp 2021-03-07  A-2021-03-05 US       inc death       1 quantile   
#> 10 hubcomp_examp 2021-03-07  A-2021-03-05 US       inc death       1 quantile   
#> # ℹ 29,942 more rows
#> # ℹ 2 more variables: output_type_id <dbl>, value <dbl>
```
…
In csv datasets we use argument `col_types` to specify the schema:

``` r
arrow::open_dataset(
  "model-output",
  format = "csv",
  partitioning = "model_id",
  col_types = schema,
  unify_schemas = TRUE,
  strings_can_be_null = TRUE,
  factory_options = list(exclude_invalid_files = TRUE)
) %>%
  filter(location == "US") %>%
  hubData::collect_hub()
#> # A tibble: 29,952 × 9
#>    model_id        origin_date scenario_id  location target  horizon output_type
#>  * <chr>           <date>      <chr>        <chr>    <chr>     <int> <chr>      
#>  1 HUBuni-simexamp 2021-03-07  A-2021-03-05 US       inc de…       1 quantile   
#>  2 HUBuni-simexamp 2021-03-07  A-2021-03-05 US       inc de…       1 quantile   
#>  3 HUBuni-simexamp 2021-03-07  A-2021-03-05 US       inc de…       1 quantile   
#>  4 HUBuni-simexamp 2021-03-07  A-2021-03-05 US       inc de…       1 quantile   
#>  5 HUBuni-simexamp 2021-03-07  A-2021-03-05 US       inc de…       1 quantile   
#>  6 HUBuni-simexamp 2021-03-07  A-2021-03-05 US       inc de…       1 quantile   
#>  7 HUBuni-simexamp 2021-03-07  A-2021-03-05 US       inc de…       1 quantile   
#>  8 HUBuni-simexamp 2021-03-07  A-2021-03-05 US       inc de…       1 quantile   
#>  9 HUBuni-simexamp 2021-03-07  A-2021-03-05 US       inc de…       1 quantile   
#> 10 HUBuni-simexamp 2021-03-07  A-2021-03-05 US       inc de…       1 quantile   
#> # ℹ 29,942 more rows
#> # ℹ 2 more variables: output_type_id <dbl>, value <dbl>
```
…
